ToyID;Day;EmployeeID;Quantity
1001;20190102;Employee_1;2
1001;20190102;Employee_2;1
1001;20190102;Employee_3;2
1001;20190103;Employee_1;6
1001;20190104;Employee_1;7
1001;20190305;Employee_2;10
1001;20190319;Employee_2;40
1001;20190319;Employee_3;14
1001;20190810;Employee_2;6
1001;20190910;Employee_1;8
1001;20191010;Employee_2;22
1001;20191010;Employee_3;22
1001;20191001;Employee_2;20
1001;20191001;Employee_3;3
1001;20190405;Employee_2;46
1001;20190405;Employee_3;10
1001;20191230;Employee_2;45
1001;20191230;Employee_3;43
1001;20191225;Employee_2;70
1001;20191225;Employee_3;30
1002;20190102;Employee_2;24
1002;20190102;Employee_3;10
1002;20190103;Employee_2;12
1002;20190104;Employee_1;1
1002;20190305;Employee_3;6
1002;20190319;Employee_3;7
1002;20190810;Employee_2;9
1002;20190910;Employee_1;10
1002;20191010;Employee_3;4
1002;20191001;Employee_2;7
1002;20190405;Employee_1;8
1002;20191230;Employee_1;3
1002;20191225;Employee_2;10
1002;20190504;Employee_3;23
1003;20190319;Employee_3;2
1003;20190810;Employee_2;45
1003;20190810;Employee_3;11
1003;20190910;Employee_3;7
1003;20191010;Employee_2;8
1003;20191001;Employee_2;23
1003;20191001;Employee_3;20
1003;20190405;Employee_1;23
1003;20191230;Employee_1;12
1003;20191225;Employee_2;4
1003;20190504;Employee_3;9
1004;20190404;Employee_1;15
1004;20190407;Employee_2;6
1004;20190425;Employee_1;7
1004;20190517;Employee_1;2
1004;20190522;Employee_2;3
1004;20190601;Employee_2;9
1004;20190620;Employee_3;10
1004;20190701;Employee_1;6
1004;20190813;Employee_2;7
1005;20191214;Employee_1;23
1005;20191207;Employee_2;10
1005;20191209;Employee_3;45
1005;20191225;Employee_2;67
1007;20190505;Employee_1;1
1007;20190507;Employee_3;2
1007;20191231;Employee_2;15
1007;20191230;Employee_2;30
1007;20191230;Employee_3;5
1008;20190102;Employee_1;1
1008;20190103;Employee_1;2
1008;20190104;Employee_1;3
1008;20190305;Employee_1;4
1008;20190319;Employee_1;1
1008;20190810;Employee_1;5
1008;20190910;Employee_2;6
1008;20191010;Employee_2;7
1008;20191001;Employee_1;1
1008;20190405;Employee_2;9
1008;20191230;Employee_3;1
1008;20191225;Employee_1;1
1008;20190504;Employee_1;5
1010;20190103;Employee_2;32
1010;20190104;Employee_3;12
1010;20190305;Employee_2;24
1010;20190305;Employee_3;10
1010;20190319;Employee_2;8
1010;20190810;Employee_3;17
1010;20190910;Employee_3;22
1010;20191010;Employee_1;23
1010;20191001;Employee_2;12
1010;20190405;Employee_1;40
1010;20190405;Employee_2;16
1010;20191230;Employee_1;21
1011;20190304;Employee_3;2
1011;20190404;Employee_2;3
1011;20190407;Employee_2;4
1012;20190910;Employee_1;10
1012;20191010;Employee_1;13
1012;20191001;Employee_2;15
1012;20190405;Employee_3;16
1012;20191230;Employee_3;17
1012;20190304;Employee_1;19
1013;20190101;Employee_2;12
1013;20190105;Employee_1;11
1013;20190108;Employee_2;5
1013;20190109;Employee_3;6
1013;20190203;Employee_2;2
1013;20190225;Employee_1;9
1014;20191230;Employee_2;10
1014;20191231;Employee_3;9
1015;20191230;Employee_2;15
1015;20191231;Employee_1;10
1015;20191215;Employee_1;2
1015;20191217;Employee_3;19
1015;20191222;Employee_2;15
1016;20190102;Employee_1;12
1016;20190103;Employee_1;14
1016;20190104;Employee_1;17
1016;20190305;Employee_2;5
1016;20190319;Employee_3;2
1016;20190810;Employee_2;8
1016;20190910;Employee_3;3
1016;20191010;Employee_1;11
1016;20191001;Employee_2;8
1016;20190405;Employee_1;9
1016;20191230;Employee_2;10
1016;20191225;Employee_3;16
1016;20191215;Employee_1;19
1016;20191217;Employee_1;45
1016;20191222;Employee_1;60
1016;20191222;Employee_2;5
1016;20191231;Employee_1;40
1016;20191231;Employee_2;30
1017;20190102;Employee_3;4
1017;20190103;Employee_2;5
1017;20190104;Employee_2;7
1017;20190305;Employee_1;1
1017;20190319;Employee_1;1
1017;20190810;Employee_1;1
1017;20190910;Employee_1;1
1017;20191010;Employee_1;1
1017;20191001;Employee_1;1
1017;20190405;Employee_1;2
1017;20191230;Employee_2;8
1017;20191225;Employee_2;6
1017;20191215;Employee_2;4
1017;20191217;Employee_2;6
1017;20191222;Employee_1;11
1017;20191231;Employee_1;12