﻿#LOG_FORMAT=1
#LOGID=6
"","20190522093218","20190522093218","Admin","S","20190521141348","20190522093218","}DimensionProperties","}Processes","LAST_TIME_UPDATED",""
"","20190522093700","20190522093700","Admin","S","20190522093218","20190522093700","}DimensionProperties","}Processes","LAST_TIME_UPDATED",""
"","20190522093708","20190522093708","Admin","S","20190522093700","20190522093708","}DimensionProperties","}Processes","LAST_TIME_UPDATED",""
"","20190522094025","20190522094025","Admin","S","20190521142012","20190522094025","}DimensionProperties","}Dimensions","LAST_TIME_UPDATED",""
"","20190522094025","20190522094025","Admin","S","","20190522094025","}DimensionProperties","Time","LAST_TIME_UPDATED",""
"","20190522094025","20190522094025","Admin","S","","BYNAME","}DimensionProperties","Time","SORTCOMPONENTSTYPE",""
"","20190522094025","20190522094025","Admin","S","","ASCENDING","}DimensionProperties","Time","SORTCOMPONENTSSENSE",""
"","20190522094025","20190522094025","Admin","S","","BYHIERARCHY","}DimensionProperties","Time","SORTELEMENTSTYPE",""
"","20190522094206","20190522094206","Admin","S","20190522094025","20190522094206","}DimensionProperties","}Dimensions","LAST_TIME_UPDATED",""
"","20190522094206","20190522094206","Admin","S","","20190522094206","}DimensionProperties","Time","LAST_TIME_UPDATED",""
"","20190522094206","20190522094206","Admin","S","","BYNAME","}DimensionProperties","Time","SORTCOMPONENTSTYPE",""
"","20190522094206","20190522094206","Admin","S","","ASCENDING","}DimensionProperties","Time","SORTCOMPONENTSSENSE",""
"","20190522094206","20190522094206","Admin","S","","BYHIERARCHY","}DimensionProperties","Time","SORTELEMENTSTYPE",""
"","20190522094238","20190522094238","Admin","S","20190522094206","20190522094238","}DimensionProperties","}Dimensions","LAST_TIME_UPDATED",""
"","20190522094238","20190522094238","Admin","S","","20190522094238","}DimensionProperties","Time","LAST_TIME_UPDATED",""
"","20190522094238","20190522094238","Admin","S","","BYNAME","}DimensionProperties","Time","SORTCOMPONENTSTYPE",""
"","20190522094238","20190522094238","Admin","S","","ASCENDING","}DimensionProperties","Time","SORTCOMPONENTSSENSE",""
"","20190522094238","20190522094238","Admin","S","","BYHIERARCHY","}DimensionProperties","Time","SORTELEMENTSTYPE",""
"","20190522094256","20190522094256","Admin","S","20190522094238","20190522094256","}DimensionProperties","}Dimensions","LAST_TIME_UPDATED",""
"","20190522094300","20190522094300","Admin","S","20190522094256","20190522094300","}DimensionProperties","}Dimensions","LAST_TIME_UPDATED",""
"","20190522094300","20190522094300","Admin","S","","20190522094300","}DimensionProperties","Time","LAST_TIME_UPDATED",""
"","20190522094300","20190522094300","Admin","S","","BYNAME","}DimensionProperties","Time","SORTCOMPONENTSTYPE",""
"","20190522094300","20190522094300","Admin","S","","ASCENDING","}DimensionProperties","Time","SORTCOMPONENTSSENSE",""
"","20190522094300","20190522094300","Admin","S","","BYHIERARCHY","}DimensionProperties","Time","SORTELEMENTSTYPE",""
"","20190522094351","20190522094351","Admin","S","20190522094300","20190522094351","}DimensionProperties","}Dimensions","LAST_TIME_UPDATED",""
"","20190522094351","20190522094351","Admin","S","","20190522094351","}DimensionProperties","Time","LAST_TIME_UPDATED",""
"","20190522094351","20190522094351","Admin","S","","BYNAME","}DimensionProperties","Time","SORTCOMPONENTSTYPE",""
"","20190522094351","20190522094351","Admin","S","","ASCENDING","}DimensionProperties","Time","SORTCOMPONENTSSENSE",""
"","20190522094351","20190522094351","Admin","S","","BYHIERARCHY","}DimensionProperties","Time","SORTELEMENTSTYPE",""
"","20190522094435","20190522094435","Admin","S","20190522094351","20190522094435","}DimensionProperties","}Dimensions","LAST_TIME_UPDATED",""
"","20190522094435","20190522094435","Admin","S","","20190522094435","}DimensionProperties","Time","LAST_TIME_UPDATED",""
"","20190522094435","20190522094435","Admin","S","","BYNAME","}DimensionProperties","Time","SORTCOMPONENTSTYPE",""
"","20190522094435","20190522094435","Admin","S","","ASCENDING","}DimensionProperties","Time","SORTCOMPONENTSSENSE",""
"","20190522094435","20190522094435","Admin","S","","BYHIERARCHY","}DimensionProperties","Time","SORTELEMENTSTYPE",""
"","20190522094634","20190522094634","Admin","S","20190522094435","20190522094634","}DimensionProperties","Time","LAST_TIME_UPDATED",""
"","20190522094722","20190522094722","Admin","S","20190522094634","20190522094722","}DimensionProperties","Time","LAST_TIME_UPDATED",""
"","20190522095157","20190522095157","Admin","S","20190522094722","20190522095157","}DimensionProperties","Time","LAST_TIME_UPDATED",""
"","20190522095402","20190522095402","Admin","S","20190522095157","20190522095402","}DimensionProperties","Time","LAST_TIME_UPDATED",""
"","20190522095441","20190522095441","Admin","S","20190522095402","20190522095441","}DimensionProperties","Time","LAST_TIME_UPDATED",""
"","20190522095452","20190522095452","Admin","S","20190522095441","20190522095452","}DimensionProperties","Time","LAST_TIME_UPDATED",""
"","20190522095615","20190522095615","Admin","S","20190522094435","20190522095615","}DimensionProperties","}Dimensions","LAST_TIME_UPDATED",""
"","20190522095621","20190522095621","Admin","S","20190522095615","20190522095621","}DimensionProperties","}Dimensions","LAST_TIME_UPDATED",""
"","20190522095621","20190522095621","Admin","S","","20190522095621","}DimensionProperties","Time","LAST_TIME_UPDATED",""
"","20190522095621","20190522095621","Admin","S","","BYNAME","}DimensionProperties","Time","SORTCOMPONENTSTYPE",""
"","20190522095621","20190522095621","Admin","S","","ASCENDING","}DimensionProperties","Time","SORTCOMPONENTSSENSE",""
"","20190522095621","20190522095621","Admin","S","","BYHIERARCHY","}DimensionProperties","Time","SORTELEMENTSTYPE",""
"","20190522095629","20190522095629","Admin","S","20190522095621","20190522095629","}DimensionProperties","Time","LAST_TIME_UPDATED",""
"","20190522095733","20190522095733","Admin","S","20190522095629","20190522095733","}DimensionProperties","Time","LAST_TIME_UPDATED",""
"","20190522095749","20190522095749","Admin","S","20190522095621","20190522095749","}DimensionProperties","}Dimensions","LAST_TIME_UPDATED",""
"","20190522101202","20190522101202","Admin","S","20190522095749","20190522101202","}DimensionProperties","}Dimensions","LAST_TIME_UPDATED",""
"","20190522101202","20190522101202","Admin","S","","20190522101202","}DimensionProperties","Time","LAST_TIME_UPDATED",""
"","20190522101202","20190522101202","Admin","S","","BYNAME","}DimensionProperties","Time","SORTCOMPONENTSTYPE",""
"","20190522101202","20190522101202","Admin","S","","ASCENDING","}DimensionProperties","Time","SORTCOMPONENTSSENSE",""
"","20190522101202","20190522101202","Admin","S","","BYHIERARCHY","}DimensionProperties","Time","SORTELEMENTSTYPE",""
"","20190522101209","20190522101209","Admin","S","20190522101202","20190522101209","}DimensionProperties","Time","LAST_TIME_UPDATED",""
"","20190522101227","20190522101227","Admin","S","20190522101209","20190522101227","}DimensionProperties","Time","LAST_TIME_UPDATED",""
"","20190522101320","20190522101320","Admin","S","20190522101227","20190522101320","}DimensionProperties","Time","LAST_TIME_UPDATED",""
"","20190522101441","20190522101441","Admin","S","20190522101202","20190522101441","}DimensionProperties","}Dimensions","LAST_TIME_UPDATED",""
"","20190522101445","20190522101445","Admin","S","20190522101441","20190522101445","}DimensionProperties","}Dimensions","LAST_TIME_UPDATED",""
"","20190522101445","20190522101445","Admin","S","","20190522101445","}DimensionProperties","Time","LAST_TIME_UPDATED",""
"","20190522101445","20190522101445","Admin","S","","BYNAME","}DimensionProperties","Time","SORTCOMPONENTSTYPE",""
"","20190522101445","20190522101445","Admin","S","","ASCENDING","}DimensionProperties","Time","SORTCOMPONENTSSENSE",""
"","20190522101445","20190522101445","Admin","S","","BYHIERARCHY","}DimensionProperties","Time","SORTELEMENTSTYPE",""
"","20190522101448","20190522101448","Admin","S","20190522101445","20190522101448","}DimensionProperties","Time","LAST_TIME_UPDATED",""
"","20190522101510","20190522101510","Admin","S","20190522101448","20190522101510","}DimensionProperties","Time","LAST_TIME_UPDATED",""
"","20190522101537","20190522101537","Admin","S","20190522101510","20190522101537","}DimensionProperties","Time","LAST_TIME_UPDATED",""
"","20190522101910","20190522101910","Admin","S","20190522101445","20190522101910","}DimensionProperties","}Dimensions","LAST_TIME_UPDATED",""
"","20190522101915","20190522101915","Admin","S","20190522101910","20190522101915","}DimensionProperties","}Dimensions","LAST_TIME_UPDATED",""
"","20190522101915","20190522101915","Admin","S","","20190522101915","}DimensionProperties","Time","LAST_TIME_UPDATED",""
"","20190522101915","20190522101915","Admin","S","","BYNAME","}DimensionProperties","Time","SORTCOMPONENTSTYPE",""
"","20190522101915","20190522101915","Admin","S","","ASCENDING","}DimensionProperties","Time","SORTCOMPONENTSSENSE",""
"","20190522101915","20190522101915","Admin","S","","BYHIERARCHY","}DimensionProperties","Time","SORTELEMENTSTYPE",""
"","20190522102432","20190522102432","Admin","S","20190522101915","20190522102432","}DimensionProperties","Time","LAST_TIME_UPDATED",""
"","20190522102510","20190522102510","Admin","S","20190522102432","20190522102510","}DimensionProperties","Time","LAST_TIME_UPDATED",""
"","20190522102540","20190522102540","Admin","S","20190522102510","20190522102540","}DimensionProperties","Time","LAST_TIME_UPDATED",""
"","20190522102649","20190522102649","Admin","S","20190522102540","20190522102649","}DimensionProperties","Time","LAST_TIME_UPDATED",""
"","20190522103439","20190522103439","Admin","S","20190522102649","20190522103439","}DimensionProperties","Time","LAST_TIME_UPDATED",""
"","20190522103521","20190522103521","Admin","S","20190522103439","20190522103521","}DimensionProperties","Time","LAST_TIME_UPDATED",""
"","20190522103539","20190522103539","Admin","S","20190522101915","20190522103539","}DimensionProperties","}Dimensions","LAST_TIME_UPDATED",""
"","20190522103547","20190522103547","Admin","S","20190522103539","20190522103547","}DimensionProperties","}Dimensions","LAST_TIME_UPDATED",""
"","20190522103547","20190522103547","Admin","S","","20190522103547","}DimensionProperties","Time","LAST_TIME_UPDATED",""
"","20190522103547","20190522103547","Admin","S","","BYNAME","}DimensionProperties","Time","SORTCOMPONENTSTYPE",""
"","20190522103547","20190522103547","Admin","S","","ASCENDING","}DimensionProperties","Time","SORTCOMPONENTSSENSE",""
"","20190522103547","20190522103547","Admin","S","","BYHIERARCHY","}DimensionProperties","Time","SORTELEMENTSTYPE",""
"","20190522103551","20190522103551","Admin","S","20190522103547","20190522103551","}DimensionProperties","Time","LAST_TIME_UPDATED",""
"","20190522103718","20190522103718","Admin","S","20190522103547","20190522103718","}DimensionProperties","}Dimensions","LAST_TIME_UPDATED",""
"","20190522103718","20190522103718","Admin","S","","20190522103718","}DimensionProperties","Time","LAST_TIME_UPDATED",""
"","20190522103718","20190522103718","Admin","S","","BYNAME","}DimensionProperties","Time","SORTCOMPONENTSTYPE",""
"","20190522103718","20190522103718","Admin","S","","ASCENDING","}DimensionProperties","Time","SORTCOMPONENTSSENSE",""
"","20190522103718","20190522103718","Admin","S","","BYHIERARCHY","}DimensionProperties","Time","SORTELEMENTSTYPE",""
"","20190522103728","20190522103728","Admin","S","20190522103718","20190522103728","}DimensionProperties","Time","LAST_TIME_UPDATED",""
"","20190522103926","20190522103926","Admin","S","20190522103728","20190522103926","}DimensionProperties","Time","LAST_TIME_UPDATED",""
"","20190522104249","20190522104249","Admin","S","20190522103926","20190522104249","}DimensionProperties","Time","LAST_TIME_UPDATED",""
"","20190522105112","20190522105112","Admin","S","20190522104249","20190522105112","}DimensionProperties","Time","LAST_TIME_UPDATED",""
"","20190522105124","20190522105124","Admin","S","20190522103718","20190522105124","}DimensionProperties","}Dimensions","LAST_TIME_UPDATED",""
"","20190522105130","20190522105130","Admin","S","20190522105124","20190522105130","}DimensionProperties","}Dimensions","LAST_TIME_UPDATED",""
"","20190522105130","20190522105130","Admin","S","","20190522105130","}DimensionProperties","Time","LAST_TIME_UPDATED",""
"","20190522105130","20190522105130","Admin","S","","BYNAME","}DimensionProperties","Time","SORTCOMPONENTSTYPE",""
"","20190522105130","20190522105130","Admin","S","","ASCENDING","}DimensionProperties","Time","SORTCOMPONENTSSENSE",""
"","20190522105130","20190522105130","Admin","S","","BYHIERARCHY","}DimensionProperties","Time","SORTELEMENTSTYPE",""
"","20190522105306","20190522105306","Admin","S","20190522105130","20190522105306","}DimensionProperties","}Dimensions","LAST_TIME_UPDATED",""
"","20190522105314","20190522105314","Admin","S","20190522105306","20190522105314","}DimensionProperties","}Dimensions","LAST_TIME_UPDATED",""
"","20190522105314","20190522105314","Admin","S","","20190522105314","}DimensionProperties","Time","LAST_TIME_UPDATED",""
"","20190522105314","20190522105314","Admin","S","","BYNAME","}DimensionProperties","Time","SORTCOMPONENTSTYPE",""
"","20190522105314","20190522105314","Admin","S","","ASCENDING","}DimensionProperties","Time","SORTCOMPONENTSSENSE",""
"","20190522105314","20190522105314","Admin","S","","BYHIERARCHY","}DimensionProperties","Time","SORTELEMENTSTYPE",""
"","20190522110017","20190522110017","Admin","S","20190522105314","20190522110017","}DimensionProperties","}Dimensions","LAST_TIME_UPDATED",""
"","20190522110022","20190522110022","Admin","S","20190522110017","20190522110022","}DimensionProperties","}Dimensions","LAST_TIME_UPDATED",""
"","20190522110022","20190522110022","Admin","S","","20190522110022","}DimensionProperties","Time","LAST_TIME_UPDATED",""
"","20190522110022","20190522110022","Admin","S","","BYNAME","}DimensionProperties","Time","SORTCOMPONENTSTYPE",""
"","20190522110022","20190522110022","Admin","S","","ASCENDING","}DimensionProperties","Time","SORTCOMPONENTSSENSE",""
"","20190522110022","20190522110022","Admin","S","","BYHIERARCHY","}DimensionProperties","Time","SORTELEMENTSTYPE",""
"","20190522110045","20190522110045","Admin","S","20190522110022","20190522110045","}DimensionProperties","}Dimensions","LAST_TIME_UPDATED",""
"","20190522110049","20190522110049","Admin","S","20190522110045","20190522110049","}DimensionProperties","}Dimensions","LAST_TIME_UPDATED",""
"","20190522110049","20190522110049","Admin","S","","20190522110049","}DimensionProperties","Time","LAST_TIME_UPDATED",""
"","20190522110049","20190522110049","Admin","S","","BYNAME","}DimensionProperties","Time","SORTCOMPONENTSTYPE",""
"","20190522110049","20190522110049","Admin","S","","ASCENDING","}DimensionProperties","Time","SORTCOMPONENTSSENSE",""
"","20190522110049","20190522110049","Admin","S","","BYHIERARCHY","}DimensionProperties","Time","SORTELEMENTSTYPE",""
"","20190522110123","20190522110123","Admin","S","20190522110049","20190522110123","}DimensionProperties","Time","LAST_TIME_UPDATED",""
"","20190522110814","20190522110814","Admin","S","20190522110123","20190522110814","}DimensionProperties","Time","LAST_TIME_UPDATED",""
"","20190522110844","20190522110844","Admin","S","20190522110814","20190522110844","}DimensionProperties","Time","LAST_TIME_UPDATED",""
"","20190522110854","20190522110854","Admin","S","20190522110049","20190522110854","}DimensionProperties","}Dimensions","LAST_TIME_UPDATED",""
"","20190522110859","20190522110859","Admin","S","20190522110854","20190522110859","}DimensionProperties","}Dimensions","LAST_TIME_UPDATED",""
"","20190522110859","20190522110859","Admin","S","","20190522110859","}DimensionProperties","Time","LAST_TIME_UPDATED",""
"","20190522110859","20190522110859","Admin","S","","BYNAME","}DimensionProperties","Time","SORTCOMPONENTSTYPE",""
"","20190522110859","20190522110859","Admin","S","","ASCENDING","}DimensionProperties","Time","SORTCOMPONENTSSENSE",""
"","20190522110859","20190522110859","Admin","S","","BYHIERARCHY","}DimensionProperties","Time","SORTELEMENTSTYPE",""
"","20190522110902","20190522110902","Admin","S","20190522110859","20190522110902","}DimensionProperties","Time","LAST_TIME_UPDATED",""
"","20190522112154","20190522112154","Admin","S","20190522093708","20190522112154","}DimensionProperties","}Processes","LAST_TIME_UPDATED",""
"","20190522112306","20190522112306","Admin","S","20190522112154","20190522112306","}DimensionProperties","}Processes","LAST_TIME_UPDATED",""
"","20190522112458","20190522112458","Admin","S","20190522112306","20190522112458","}DimensionProperties","}Processes","LAST_TIME_UPDATED",""
"","20190522112710","20190522112710","Admin","S","20190522112458","20190522112710","}DimensionProperties","}Processes","LAST_TIME_UPDATED",""
#"","20190522113401","CubeSerialized: }CubeProperties: by *"
#"","20190522113401","CubeSerialized: }DimensionProperties: by *"
#"","20190522113401","CubeSerialized: }ElementAttributes_}Cultures: by *"
#"","20190522113401","CubeSerialized: }StatsByChore: by *"
#"","20190522113401","CubeSerialized: }StatsByClient: by *"
#"","20190522113401","CubeSerialized: }StatsByCube: by *"
#"","20190522113401","CubeSerialized: }StatsByCubeByClient: by *"
#"","20190522113401","CubeSerialized: }StatsByProcess: by *"
#"","20190522113401","CubeSerialized: }StatsForServer: by *"
